<?xml version="1.0" standalone="no"?>
<!DOCTYPE svg PUBLIC "-//W3C//DTD SVG 20010904//EN"
 "http://www.w3.org/TR/2001/REC-SVG-20010904/DTD/svg10.dtd">
<svg version="1.0" xmlns="http://www.w3.org/2000/svg"
 width="225.000000pt" height="225.000000pt" viewBox="0 0 225.000000 225.000000"
 preserveAspectRatio="xMidYMid meet">
<metadata>
Created by potrace 1.15, written by Peter Selinger 2001-2017
</metadata>
<g transform="translate(0.000000,225.000000) scale(0.100000,-0.100000)"
fill="#000000" stroke="none">
<path d="M483 2096 c-97 -32 -161 -98 -190 -195 -29 -99 7 -215 87 -283 l40
-35 0 -458 0 -458 -40 -35 c-150 -127 -119 -372 57 -459 48 -23 70 -28 128
-27 82 1 129 19 186 71 57 52 81 104 87 189 4 61 1 80 -20 126 -23 50 -90 128
-110 128 -4 0 -8 115 -8 257 l0 256 68 -65 c166 -160 356 -246 563 -256 l107
-4 36 -43 c77 -93 221 -126 328 -75 54 25 122 95 146 148 21 49 20 165 -2 215
-83 189 -343 227 -474 70 l-37 -44 -65 6 c-150 15 -257 58 -372 151 -69 56
-172 184 -222 276 l-29 54 36 52 c19 29 41 68 47 88 17 51 8 160 -18 210 -25
49 -88 108 -139 129 -53 22 -140 27 -190 11z m136 -141 c52 -26 81 -71 81
-123 0 -88 -56 -142 -146 -142 -40 0 -51 5 -85 38 -42 43 -54 76 -45 126 17
89 118 141 195 101z m1147 -856 c65 -39 81 -133 35 -198 -31 -43 -100 -67
-149 -53 -57 17 -94 61 -100 120 -12 126 105 197 214 131z m-1129 -559 c42
-25 63 -68 63 -126 0 -40 -5 -51 -38 -85 -44 -43 -76 -54 -129 -44 -72 13
-127 99 -108 172 3 15 23 44 44 65 34 34 44 38 87 38 31 0 61 -7 81 -20z"/>
</g>
</svg>
